21311LJ024 - Studierende, Abschlussprüfung, Land, Semester — df_21311LJ024 • studentenstatistikNRW
…
Variable type: numeric
skim_variablen_missingcomplete_ratemeansdp0p25p50p75p100hist
BIL00201229634.21960322975092149188487673.5529378▇▅▁▁▆

    Examples

library(labelled)

df_21311LJ024
#> # A tibble: 79 × 4
#>    BILAP3           DLAND                    SEMEST     BIL002
#>    <chr+lbl>        <chr+lbl>                <chr>       <dbl>
#>  1 HSAP1 [Bachelor] 05 [Nordrhein-Westfalen] WS 1999/00   1158
#>  2 HSAP1 [Bachelor] 05 [Nordrhein-Westfalen] WS 2000/01   3270
#>  3 HSAP1 [Bachelor] 05 [Nordrhein-Westfalen] WS 2001/02   7748
#>  4 HSAP1 [Bachelor] 05 [Nordrhein-Westfalen] WS 2002/03  16993
#>  5 HSAP1 [Bachelor] 05 [Nordrhein-Westfalen] WS 2003/04  29766
#>  6 HSAP1 [Bachelor] 05 [Nordrhein-Westfalen] WS 2004/05  38741
#>  7 HSAP1 [Bachelor] 05 [Nordrhein-Westfalen] WS 2005/06  59200
#>  8 HSAP1 [Bachelor] 05 [Nordrhein-Westfalen] WS 2006/07  87675
#>  9 HSAP1 [Bachelor] 05 [Nordrhein-Westfalen] WS 2007/08 138795
#> 10 HSAP1 [Bachelor] 05 [Nordrhein-Westfalen] WS 2008/09 194183
#> # ℹ 69 more rows
…
