21311LJ211 - Studierende, Fächergruppe, Altersgruppen (unter 18, 1-Jahres-Schritte, 60 und mehr), Land, Semester — df_21311LJ211 • studentenstatistikNRW
…
Variable type: numeric
skim_variablen_missingcomplete_ratemeansdp0p25p50p75p100hist
BIL002011718.373435.31482951454.2525316▇▁▁▁▁

    Examples

library(labelled)

df_21311LJ211
#> # A tibble: 9,692 × 5
#>    BINWFG3                      ALTNW08                   DLAND    SEMEST BIL002
#>    <chr+lbl>                    <chr+lbl>                 <chr+lb> <chr>   <dbl>
#>  1 FG01 [Geisteswissenschaften] ALT000B18 [unter 18 Jahr… 05 [Nor… WS 19…      3
#>  2 FG01 [Geisteswissenschaften] ALT000B18 [unter 18 Jahr… 05 [Nor… WS 19…     43
#>  3 FG01 [Geisteswissenschaften] ALT000B18 [unter 18 Jahr… 05 [Nor… WS 19…      7
#>  4 FG01 [Geisteswissenschaften] ALT000B18 [unter 18 Jahr… 05 [Nor… WS 19…      5
#>  5 FG01 [Geisteswissenschaften] ALT000B18 [unter 18 Jahr… 05 [Nor… WS 19…      5
#>  6 FG01 [Geisteswissenschaften] ALT000B18 [unter 18 Jahr… 05 [Nor… WS 19…      2
#>  7 FG01 [Geisteswissenschaften] ALT000B18 [unter 18 Jahr… 05 [Nor… WS 20…      6
#>  8 FG01 [Geisteswissenschaften] ALT000B18 [unter 18 Jahr… 05 [Nor… WS 20…      4
#>  9 FG01 [Geisteswissenschaften] ALT000B18 [unter 18 Jahr… 05 [Nor… WS 20…     12
#> 10 FG01 [Geisteswissenschaften] ALT000B18 [unter 18 Jahr… 05 [Nor… WS 20…      9
#> # ℹ 9,682 more rows
…
