21311NW007A - Studierende / Studenten, Land, Hochschulen, Studienfach, Geschlecht, Semester — df_21311NW007A • studentenstatistikNRW
…
ges01FALSE2män: 26953, wei: 26861

semest01FALSE22WS : 3356, WS : 3260, WS : 3162, WS : 3054

Variable type: numeric

skim_variablen_missingcomplete_ratemeansdp0p25p50p75p100hist

bil002_val01242.35519.731248926616714▇▁▁▁▁

    Examples

df_21311NW007A

#> # A tibble: 53,814 x 6
#>    dland      bilhs1                    bilsf1          ges   semest  bil002_val
#>    <fct>      <fct>                     <fct>           <fct> <fct>        <dbl>
#>  1 Nordrhein… Hochschule Macromedia fü… Betriebswirtsc… männ… WS 201…          6
#>  2 Nordrhein… Hochschule Macromedia fü… Betriebswirtsc… weib… WS 201…         10
#>  3 Nordrhein… Hochschule Macromedia fü… Film und Ferns… männ… WS 201…         95
#>  4 Nordrhein… Hochschule Macromedia fü… Film und Ferns… männ… WS 201…         96
#>  5 Nordrhein… Hochschule Macromedia fü… Film und Ferns… männ… WS 201…        103
#>  6 Nordrhein… Hochschule Macromedia fü… Film und Ferns… weib… WS 201…         42
#>  7 Nordrhein… Hochschule Macromedia fü… Film und Ferns… weib… WS 201…         47
#>  8 Nordrhein… Hochschule Macromedia fü… Film und Ferns… weib… WS 201…         42
#>  9 Nordrhein… Hochschule Macromedia fü… Graphikdesign/… männ… WS 201…         19
#> 10 Nordrhein… Hochschule Macromedia fü… Graphikdesign/… männ… WS 201…         24
#> # … with 53,804 more rows
…
