21311NW001B - Studierende / Studenten, Land, Hochschulen, Fachsemester, Nationalität, Hörerstatus, Angestrebte Abschlussprüfung, Semester — df_21311NW001B • studentenstatistikNRW
…
bilap101FALSE59Bac: 25225, Dip: 20206, Pro: 16443, Dip: 13514

semest01FALSE22WS : 11675, WS : 11581, WS : 11114, WS : 10778

Variable type: numeric

skim_variablen_missingcomplete_ratemeansdp0p25p50p75p100hist

bil002_val0160.91213.051273411242▇▁▁▁▁

    Examples

df_21311NW001B

#> # A tibble: 214,109 x 8
#>    dland    bilhs1           bilfs1   nat   bilhn1 bilap1      semest bil002_val
#>    <fct>    <fct>            <fct>    <fct> <fct>  <fct>       <fct>       <dbl>
#>  1 Nordrhe… Hochschule Macr… 1. Fach… Ausl… Haupt… "Bachelor … WS 20…         14
#>  2 Nordrhe… Hochschule Macr… 1. Fach… Ausl… Haupt… "Bachelor … WS 20…         11
#>  3 Nordrhe… Hochschule Macr… 1. Fach… Ausl… Haupt… "Bachelor … WS 20…         20
#>  4 Nordrhe… Hochschule Macr… 1. Fach… Ausl… Haupt… "Master (F… WS 20…          1
#>  5 Nordrhe… Hochschule Macr… 1. Fach… Ausl… Haupt… "Abschluss… WS 20…          4
#>  6 Nordrhe… Hochschule Macr… 1. Fach… Ausl… Haupt… " angestre… WS 20…          3
#>  7 Nordrhe… Hochschule Macr… 1. Fach… Ausl… Haupt… " angestre… WS 20…          3
#>  8 Nordrhe… Hochschule Macr… 1. Fach… Deut… Haupt… "Bachelor … WS 20…        147
#>  9 Nordrhe… Hochschule Macr… 1. Fach… Deut… Haupt… "Bachelor … WS 20…        191
#> 10 Nordrhe… Hochschule Macr… 1. Fach… Deut… Haupt… "Bachelor … WS 20…        185
#> # … with 214,099 more rows
…
