21311LJ296 - Studienanfänger im 1. Hochschulsemester, Studienanfänger im 1. Fachsemester, Studienfach, Land, Studienjahr — df_21311LJ296 • studentenstatistikNRW
…
Variable type: numeric
skim_variablen_missingcomplete_ratemeansdp0p25p50p75p100hist
SJAHR012007.998.5519932001.0020082015.002022▇▇▇▇▇
BIL04101477.291044.40028.25113399.0015100▇▁▁▁▁
BIL04201776.211725.97050.25176604.7520287▇▁▁▁▁

    Examples

library(labelled)

df_21311LJ296
#> # A tibble: 5,762 × 5
#>    BILNWSF1            DLAND                    SJAHR BIL041 BIL042
#>    <chr+lbl>           <chr+lbl>                <dbl>  <dbl>  <dbl>
#>  1 SF001 [Ägyptologie] 05 [Nordrhein-Westfalen]  1993     33     62
#>  2 SF001 [Ägyptologie] 05 [Nordrhein-Westfalen]  1994     26     53
#>  3 SF001 [Ägyptologie] 05 [Nordrhein-Westfalen]  1995     32     64
#>  4 SF001 [Ägyptologie] 05 [Nordrhein-Westfalen]  1996     39     62
#>  5 SF001 [Ägyptologie] 05 [Nordrhein-Westfalen]  1997     46     99
#>  6 SF001 [Ägyptologie] 05 [Nordrhein-Westfalen]  1998     38     81
#>  7 SF001 [Ägyptologie] 05 [Nordrhein-Westfalen]  1999     37     75
#>  8 SF001 [Ägyptologie] 05 [Nordrhein-Westfalen]  2000     44     71
#>  9 SF001 [Ägyptologie] 05 [Nordrhein-Westfalen]  2001     38     85
#> 10 SF001 [Ägyptologie] 05 [Nordrhein-Westfalen]  2002     50    110
#> # ℹ 5,752 more rows
…
