21311LJ185 - Studierende, Geschlecht, Land der Hochschulzugangsberechtigung, Land, Semester — df_21311LJ185 • studentenstatistikNRW
…
Variable type: numeric
skim_variablen_missingcomplete_ratemeansdp0p25p50p75p100hist
BIL0020116270.0449129.0811097.520547786287395▇▁▁▁▁

    Examples

library(labelled)

df_21311LJ185
#> # A tibble: 1,115 × 5
#>    GES             BILZUBL                 DLAND                   SEMEST BIL002
#>    <chr+lbl>       <chr+lbl>               <chr+lbl>               <chr>   <dbl>
#>  1 GESM [männlich] 01 [Schleswig-Holstein] 05 [Nordrhein-Westfale… WS 19…   1935
#>  2 GESM [männlich] 01 [Schleswig-Holstein] 05 [Nordrhein-Westfale… WS 19…   1988
#>  3 GESM [männlich] 01 [Schleswig-Holstein] 05 [Nordrhein-Westfale… WS 19…   2090
#>  4 GESM [männlich] 01 [Schleswig-Holstein] 05 [Nordrhein-Westfale… WS 19…   2144
#>  5 GESM [männlich] 01 [Schleswig-Holstein] 05 [Nordrhein-Westfale… WS 19…   2115
#>  6 GESM [männlich] 01 [Schleswig-Holstein] 05 [Nordrhein-Westfale… WS 19…   2154
#>  7 GESM [männlich] 01 [Schleswig-Holstein] 05 [Nordrhein-Westfale… WS 19…   2172
#>  8 GESM [männlich] 01 [Schleswig-Holstein] 05 [Nordrhein-Westfale… WS 19…   2139
#>  9 GESM [männlich] 01 [Schleswig-Holstein] 05 [Nordrhein-Westfale… WS 20…   2086
#> 10 GESM [männlich] 01 [Schleswig-Holstein] 05 [Nordrhein-Westfale… WS 20…   2067
#> # ℹ 1,105 more rows
…
