21311NW005B - Studierende / Studenten, Land, Hochschulen, Hochschulsemester, Nationalität, Hörerstatus, Angestrebte Abschlussprüfung, Semester — df_21311NW005B • studentenstatistikNRW
…
bilap101FALSE59Bac: 35247, Dip: 23048, Mas: 20507, Pro: 15125

semest01FALSE22WS : 13751, WS : 13748, WS : 13388, WS : 13141

Variable type: numeric

skim_variablen_missingcomplete_ratemeansdp0p25p50p75p100hist

bil002_val0150.88186.561262615507▇▁▁▁▁

    Examples

df_21311NW005B

#> # A tibble: 256,299 x 8
#>    dland     bilhs1      bilsh1    nat    bilhn1  bilap1      semest  bil002_val
#>    <fct>     <fct>       <fct>     <fct>  <fct>   <fct>       <fct>        <dbl>
#>  1 Nordrhei… Alanus Hoc… 1. Hochs… Auslä… Haupth… Abschlussp… WS 200…          1
#>  2 Nordrhei… Alanus Hoc… 1. Hochs… Auslä… Haupth… Abschlussp… WS 201…          7
#>  3 Nordrhei… Alanus Hoc… 1. Hochs… Auslä… Haupth… Abschlussp… WS 201…          1
#>  4 Nordrhei… Alanus Hoc… 1. Hochs… Auslä… Haupth… Abschlussp… WS 201…          3
#>  5 Nordrhei… Alanus Hoc… 1. Hochs… Auslä… Haupth… Abschlussp… WS 201…          1
#>  6 Nordrhei… Alanus Hoc… 1. Hochs… Auslä… Haupth… Abschlussp… WS 201…          4
#>  7 Nordrhei… Alanus Hoc… 1. Hochs… Auslä… Haupth… Bachelor (… WS 200…          8
#>  8 Nordrhei… Alanus Hoc… 1. Hochs… Auslä… Haupth… Bachelor (… WS 201…          3
#>  9 Nordrhei… Alanus Hoc… 1. Hochs… Auslä… Haupth… Bachelor (… WS 201…         15
#> 10 Nordrhei… Alanus Hoc… 1. Hochs… Auslä… Haupth… Bachelor (… WS 201…         11
#> # … with 256,289 more rows
…
