Hochschulen - Higher education institutions in Germany — hochschulen • studentenstatistikNRW
…
    Format

    A tibble with 540 rows and 16 variables:
Hochschule_Signatur
3-digit Destatis ID

    Source

    TO DO: Source ergänzen

    Examples

hochschulen
#> # A tibble: 540 × 32
#>    Hochschule_Signatur Hochschule_EN  `Hs-Nr.` Wiki_ID_DE Wikidata_ID Wiki_ID_EN
#>    <chr>               <chr>             <dbl>      <dbl> <chr>            <int>
#>  1 001                 University of…      142     342902 Q833822       18160530
#>  2 002                 University of…      361    3028791 Q619201             NA
#>  3 003                 Macromedia Un…      366    3258067 Q1346417            NA
#>  4 004                 FH Diakonie, …      375    1725093 Q1391246            NA
#>  5 006                 German Univer…      457    1378117 Q1622148            NA
#>  6 008                 University of…       71      31115 Q696757        3492726
#>  7 012                 University of…      215      55258 Q679134         994579
#>  8 013                 University of…      245     499480 Q504723       12695897
#>  9 014                 University of…      279      49915 Q447953       12696005
#> 10 015                 FernUniversit…      100     157292 Q687017        3978478
#> # ℹ 530 more rows
#> # ℹ 26 more variables: Wiki_Key_EN <chr>, Wiki_Logo_DE <chr>,
#> #   Wiki_Logo_DE_File <chr>, Wiki_Logo_DE_Description <chr>,
#> #   Wiki_Logo_DE_URL <chr>, Wiki_Logo_DE_Thumbnail_URL <chr>, ROR_ID <chr>,
#> #   Multirank <chr>, Ort <chr>, Domain_Hochschule_HRK <chr>,
#> #   CHE_DAAD_University_ID <dbl>, CHE_DAAD_Town_ID <chr>, STUDIEREN_ID <chr>,
#> #   STUDIEREN_KEY <chr>, isni <chr>, gnd_id <chr>, gepris_id <chr>, …
…
