Set variable labels using labelled::set_variable_labels — label_variables • studentenstatistikNRW
…
      table_name
      String with table name

    Value

    Data frame with labeled variables

    Examples

label_variables(
  df_21311LS001A,
  table_name = "21311LS001A"
)

#> # A tibble: 653,262 x 7
#>    DLAND      BILHS1          BILSF1      BILFS1      BILAP1       SEMEST BIL002
#>    <chr+lbl>  <chr+lbl>       <chr+lbl>   <chr+lbl>   <chr+lbl>    <chr>   <dbl>
#>  1 05 [Nordr… HS0034 [Hochsc… SF021 [Bet… FACH… [1. … AP90 [Maste… WS 20…      4
#>  2 05 [Nordr… HS0034 [Hochsc… SF021 [Bet… FACH… [2. … AP90 [Maste… WS 20…     12
#>  3 05 [Nordr… HS0034 [Hochsc… SF054 [Fil… FACH… [1. … AP84 [Bache… WS 20…     40
#>  4 05 [Nordr… HS0034 [Hochsc… SF054 [Fil… FACH… [1. … AP84 [Bache… WS 20…     35
#>  5 05 [Nordr… HS0034 [Hochsc… SF054 [Fil… FACH… [1. … AP84 [Bache… WS 20…     46
#>  6 05 [Nordr… HS0034 [Hochsc… SF054 [Fil… FACH… [3. … AP84 [Bache… WS 20…     36
#>  7 05 [Nordr… HS0034 [Hochsc… SF054 [Fil… FACH… [3. … AP84 [Bache… WS 20…     36
#>  8 05 [Nordr… HS0034 [Hochsc… SF054 [Fil… FACH… [3. … AP84 [Bache… WS 20…     30
#>  9 05 [Nordr… HS0034 [Hochsc… SF054 [Fil… FACH… [4. … AP84 [Bache… WS 20…      1
#> 10 05 [Nordr… HS0034 [Hochsc… SF054 [Fil… FACH… [5. … AP84 [Bache… WS 20…     35
#> # … with 653,252 more rows
…
