Institutions of Higher Education in Germany • studentenstatistikNRW
…
the link to each institution on studieren.de,

the link to the CHE
University Ranking for each institution hosted by the German
Academic Exchange Service in English,

the link for each institution’s multirank for 2022-2023,

The Hochschulen Table

library(studentenstatistikNRW)
library(tibble)

hochschulen
#> # A tibble: 540 × 32
#>    Hochschule_Signatur Hochschule_EN  `Hs-Nr.` Wiki_ID_DE Wikidata_ID Wiki_ID_EN
#>    <glue>              <glue>         <glue>   <glue>     <glue>      <glue>    
#>  1 001                 University of… 142      https://d… https://ww… https://e…
#>  2 002                 University of… 361      https://d… https://ww… NA        
#>  3 003                 Macromedia Un… 366      https://d… https://ww… NA        
#>  4 004                 FH Diakonie, … 375      https://d… https://ww… NA        
#>  5 006                 German Univer… 457      https://d… https://ww… NA        
#>  6 008                 University of… 71       https://d… https://ww… https://e…
#>  7 012                 University of… 215      https://d… https://ww… https://e…
#>  8 013                 University of… 245      https://d… https://ww… https://e…
#>  9 014                 University of… 279      https://d… https://ww… https://e…
#> 10 015                 FernUniversit… 100      https://d… https://ww… https://e…
#> # ℹ 530 more rows
#> # ℹ 26 more variables: Wiki_Key_EN <glue>, Wiki_Logo_DE <glue>,
#> #   Wiki_Logo_DE_File <glue>, Wiki_Logo_DE_Description <glue>,
#> #   Wiki_Logo_DE_URL <glue>, Wiki_Logo_DE_Thumbnail_URL <glue>, ROR_ID <glue>,
#> #   Multirank <glue>, Ort <glue>, Domain_Hochschule_HRK <glue>,
#> #   CHE_DAAD_University_ID <glue>, CHE_DAAD_Town_ID <glue>,
#> #   STUDIEREN_ID <glue>, STUDIEREN_KEY <glue>, isni <glue>, gnd_id <glue>, …
…
