Using labelled data • studentenstatistikNRW
…
Select a random table in
studententstatistikNRW::tables:

# https://stackoverflow.com/questions/9057006/getting-strings-recognized-as-variable-names-in-r
df <- get(
  get_table_name(
    tables |> 
      dplyr::slice_sample(n = 1) |> 
      dplyr::pull(tablename)
  )
) 

df
#> # A tibble: 116,941 × 7
#>    GES             BILPG1           BILNWSF1   BILNWFB    DLAND    SEMEST BIL002
#>    <chr+lbl>       <chr+lbl>        <chr+lbl>  <chr+lbl>  <chr+lb> <chr>   <dbl>
#>  1 GESM [männlich] BILPG-05 [Unive… SF0… [Ägy… BIL… [1. … 05 [Nor… WS 19…     37
#>  2 GESM [männlich] BILPG-05 [Unive… SF0… [Ägy… BIL… [1. … 05 [Nor… WS 19…     45
#>  3 GESM [männlich] BILPG-05 [Unive… SF0… [Ägy… BIL… [1. … 05 [Nor… WS 19…     51
#>  4 GESM [männlich] BILPG-05 [Unive… SF0… [Ägy… BIL… [1. … 05 [Nor… WS 19…     61
#>  5 GESM [männlich] BILPG-05 [Unive… SF0… [Ägy… BIL… [1. … 05 [Nor… WS 19…     68
#>  6 GESM [männlich] BILPG-05 [Unive… SF0… [Ägy… BIL… [1. … 05 [Nor… WS 19…     85
#>  7 GESM [männlich] BILPG-05 [Unive… SF0… [Ägy… BIL… [1. … 05 [Nor… WS 19…     98
#>  8 GESM [männlich] BILPG-05 [Unive… SF0… [Ägy… BIL… [1. … 05 [Nor… WS 19…     96
#>  9 GESM [männlich] BILPG-05 [Unive… SF0… [Ägy… BIL… [1. … 05 [Nor… WS 20…     94
#> 10 GESM [männlich] BILPG-05 [Unive… SF0… [Ägy… BIL… [1. … 05 [Nor… WS 20…    101
#> # ℹ 116,931 more rows
…
Factors

Use labelled::to_factor for easy factor conversion:

df_factor <- df |>  
  labelled::to_factor(
    levels = "labels",
    ordered = TRUE,
    sort_levels = "labels",
    strict = FALSE, # Convert to factor only if all values have a defined label?
    labelled_only = TRUE # for a data.frame, convert only labelled variables to factors?
  )

df_factor
#> # A tibble: 116,941 × 7
#>    GES      BILPG1                  BILNWSF1    BILNWFB      DLAND SEMEST BIL002
#>    <ord>    <ord>                   <ord>       <ord>        <ord> <chr>   <dbl>
#>  1 männlich Universitärer Abschluss Ägyptologie 1. Studienf… Nord… WS 19…     37
#>  2 männlich Universitärer Abschluss Ägyptologie 1. Studienf… Nord… WS 19…     45
#>  3 männlich Universitärer Abschluss Ägyptologie 1. Studienf… Nord… WS 19…     51
#>  4 männlich Universitärer Abschluss Ägyptologie 1. Studienf… Nord… WS 19…     61
#>  5 männlich Universitärer Abschluss Ägyptologie 1. Studienf… Nord… WS 19…     68
#>  6 männlich Universitärer Abschluss Ägyptologie 1. Studienf… Nord… WS 19…     85
#>  7 männlich Universitärer Abschluss Ägyptologie 1. Studienf… Nord… WS 19…     98
#>  8 männlich Universitärer Abschluss Ägyptologie 1. Studienf… Nord… WS 19…     96
#>  9 männlich Universitärer Abschluss Ägyptologie 1. Studienf… Nord… WS 20…     94
#> 10 männlich Universitärer Abschluss Ägyptologie 1. Studienf… Nord… WS 20…    101
#> # ℹ 116,931 more rows
…
