Research Organization Registry (ROR) • studentenstatistikNRW
…
df_ror_germany_education <- resps |> 
  purrr::map(
    httr2::resp_body_json
  ) |> 
  purrr::map(
    "items"
  ) |> 
  purrr::list_flatten() |> 
  tibble::tibble() |> 
  tidyr::unnest_wider(
    1
  )

df_ror_germany_education
#> # A tibble: 544 × 11
#>    admin        domains established external_ids id      links  locations names 
#>    <list>       <list>        <int> <list>       <chr>   <list> <list>    <list>
#>  1 <named list> <NULL>         1997 <list [1]>   https:… <list> <list>    <list>
#>  2 <named list> <NULL>         2014 <list [1]>   https:… <list> <list>    <list>
#>  3 <named list> <NULL>         2006 <list [1]>   https:… <list> <list>    <list>
#>  4 <named list> <NULL>           NA <list [1]>   https:… <list> <list>    <list>
#>  5 <named list> <NULL>         2015 <list [1]>   https:… <list> <list>    <list>
#>  6 <named list> <NULL>         2005 <list [2]>   https:… <list> <list>    <list>
#>  7 <named list> <NULL>         1951 <list [3]>   https:… <list> <list>    <list>
#>  8 <named list> <NULL>           NA <list [1]>   https:… <list> <list>    <list>
#>  9 <named list> <NULL>           NA <list [1]>   https:… <list> <list>    <list>
#> 10 <named list> <NULL>           NA <list [1]>   https:… <list> <list>    <list>
#> # ℹ 534 more rows
#> # ℹ 3 more variables: relationships <list>, status <chr>, types <list>
…
df_names
#> # A tibble: 1,527 × 6
#>    id                        names_id name                 lang  types_1 types_2
#>    <chr>                        <int> <chr>                <chr> <chr>   <chr>  
#>  1 https://ror.org/009dxjw45        1 Faurecia (Germany)   en    ror_di… label  
#>  2 https://ror.org/04839sh14        1 MHB                  NA    acronym NA     
#>  3 https://ror.org/04839sh14        2 Medizinische Hochsc… de    ror_di… label  
#>  4 https://ror.org/02nq6sy34        1 AfG                  NA    acronym NA     
#>  5 https://ror.org/02nq6sy34        2 Akademie für Gesund… de    ror_di… label  
#>  6 https://ror.org/02652az59        1 CUA                  NA    acronym NA     
#>  7 https://ror.org/02652az59        2 Control Union Acade… en    ror_di… label  
#>  8 https://ror.org/05gxhfq53        1 Hochschule der Poli… de    ror_di… label  
#>  9 https://ror.org/04tenkb98        1 German Graduate Sch… en    ror_di… label  
#> 10 https://ror.org/04tenkb98        2 Hheilbronn Business… en    alias   NA     
#> # ℹ 1,517 more rows
…
df_links <- tibble::tibble(
  id = df_ror_germany_education[["id"]],
  links = df_ror_germany_education[["links"]]
) |> 
  tidyr::unnest_longer(
    col = 2,
    indices_include = TRUE
  ) |> 
  tidyr::unnest_wider(
    col = "links"
  ) 

df_links
#> # A tibble: 862 × 4
#>    id                        type      value                            links_id
#>    <chr>                     <chr>     <chr>                               <int>
#>  1 https://ror.org/009dxjw45 website   http://www.faurecia.de/                 1
#>  2 https://ror.org/009dxjw45 wikipedia https://en.wikipedia.org/wiki/F…        2
#>  3 https://ror.org/04839sh14 website   http://www.mhb-fontane.de/              1
#>  4 https://ror.org/02nq6sy34 website   http://www.afg-heidelberg.de/wi…        1
#>  5 https://ror.org/02652az59 website   http://www.cu-academy.de/               1
#>  6 https://ror.org/05gxhfq53 website   http://www.polizei.rlp.de/              1
#>  7 https://ror.org/04tenkb98 website   http://www.ggs.de/en/                   1
#>  8 https://ror.org/01a2z2x66 website   http://www.iwkoeln.de/en/               1
#>  9 https://ror.org/01a2z2x66 wikipedia https://en.wikipedia.org/wiki/C…        2
#> 10 https://ror.org/00nm1ws09 website   http://www.ifnm.net/                    1
#> # ℹ 852 more rows
…
df_locations
#> # A tibble: 544 × 7
#>    id                    country_code country_name   lat   lng name  geonames_id
#>    <chr>                 <chr>        <chr>        <dbl> <dbl> <chr>       <int>
#>  1 https://ror.org/009d… DE           Germany       49.2  9.35 Neue…     2865560
#>  2 https://ror.org/0483… DE           Germany       52.9 12.8  Neur…     2864276
#>  3 https://ror.org/02nq… DE           Germany       49.4  8.66 Heid…     2907911
#>  4 https://ror.org/0265… DE           Germany       52.5 13.5  Berl…     2950159
#>  5 https://ror.org/05gx… DE           Germany       49.9  7.25 Büch…     2942559
#>  6 https://ror.org/04te… DE           Germany       49.1  9.22 Heil…     2907669
#>  7 https://ror.org/01a2… DE           Germany       50.9  6.96 Köln      2886242
#>  8 https://ror.org/00nm… DE           Germany       50.7  7.12 Bonn      2946447
#>  9 https://ror.org/01nb… DE           Germany       49.9  8.63 Darm…     2938913
#> 10 https://ror.org/02qt… DE           Germany       48.9  8.71 Pfor…     2853969
#> # ℹ 534 more rows
…
df_external_ids
#> # A tibble: 1,407 × 10
#>    id        external_ids_id type  preferred all_1 all_2 all_3 all_4 all_5 all_6
#>    <chr>               <int> <chr> <chr>     <chr> <chr> <chr> <chr> <chr> <chr>
#>  1 https://…               1 grid  grid.473… grid… NA    NA    NA    NA    NA   
#>  2 https://…               1 grid  grid.473… grid… NA    NA    NA    NA    NA   
#>  3 https://…               1 grid  grid.473… grid… NA    NA    NA    NA    NA   
#>  4 https://…               1 grid  grid.473… grid… NA    NA    NA    NA    NA   
#>  5 https://…               1 grid  grid.473… grid… NA    NA    NA    NA    NA   
#>  6 https://…               1 grid  grid.473… grid… NA    NA    NA    NA    NA   
#>  7 https://…               2 isni  NA        0000… NA    NA    NA    NA    NA   
#>  8 https://…               1 grid  grid.473… grid… NA    NA    NA    NA    NA   
#>  9 https://…               2 isni  NA        0000… NA    NA    NA    NA    NA   
#> 10 https://…               3 wiki… NA        Q958… NA    NA    NA    NA    NA   
#> # ℹ 1,397 more rows

# Let's filter on all Wikidata entries

df_external_ids |> 
  dplyr::filter(
    type == "wikidata"
  )
#> # A tibble: 360 × 10
#>    id        external_ids_id type  preferred all_1 all_2 all_3 all_4 all_5 all_6
#>    <chr>               <int> <chr> <chr>     <chr> <chr> <chr> <chr> <chr> <chr>
#>  1 https://…               3 wiki… NA        Q958… NA    NA    NA    NA    NA   
#>  2 https://…               3 wiki… NA        Q455… NA    NA    NA    NA    NA   
#>  3 https://…               3 wiki… NA        Q111… NA    NA    NA    NA    NA   
#>  4 https://…               3 wiki… NA        Q328… NA    NA    NA    NA    NA   
#>  5 https://…               3 wiki… NA        Q139… NA    NA    NA    NA    NA   
#>  6 https://…               3 wiki… NA        Q125… NA    NA    NA    NA    NA   
#>  7 https://…               3 wiki… NA        Q150… NA    NA    NA    NA    NA   
#>  8 https://…               3 wiki… NA        Q162… NA    NA    NA    NA    NA   
#>  9 https://…               3 wiki… NA        Q162… NA    NA    NA    NA    NA   
#> 10 https://…               4 wiki… NA        Q317… NA    NA    NA    NA    NA   
#> # ℹ 350 more rows
…
